…
let's start wih a for loop.

``` r
output = vector('list', length = 100)

for (i in 1:100){
  
  output[[i]] = sim_mean_sd(30)
}

bind_rows(output)
```

    ## # A tibble: 100 x 2
    ##     mean    sd
    ##    <dbl> <dbl>
    ##  1  3.07  3.78
    ##  2  3.17  3.63
    ##  3  4.25  4.26
    ##  4  3.32  3.59
    ##  5  2.96  4.36
    ##  6  3.22  3.91
    ##  7  3.55  5.10
    ##  8  3.24  4.12
    ##  9  2.77  4.66
    ## 10  2.78  3.69
    ## # ... with 90 more rows
…
